{
    "links": {
        "next": "http://moviesminidatabase.p.rapidapi.com/movie/order/byRating/?page=2",
        "previous": null
    },
    "count": 9949,
    "results": [
        {
            "imdb_id": "tt10942302",
            "title": "The Get Together",
            "rating": 9.4
        },
        {
            "imdb_id": "tt0111161",
            "title": "The Shawshank Redemption",
            "rating": 9.3
        },
        {
            "imdb_id": "tt0068646",
            "title": "The Godfather",
            "rating": 9.2
        },
        {
            "imdb_id": "tt5773402",
            "title": "Dominion",
            "rating": 9.1
        },
        {
            "imdb_id": "tt0468569",
            "title": "The Dark Knight",
            "rating": 9.0
        },
        {
            "imdb_id": "tt0071562",
            "title": "The Godfather: Part II",
            "rating": 9.0
        },
        {
            "imdb_id": "tt11989890",
            "title": "David Attenborough: A Life on Our Planet",
            "rating": 9.0
        },
        {
            "imdb_id": "tt3396910",
            "title": "Banshee",
            "rating": 9.0
        },
        {
            "imdb_id": "tt7391996",
            "title": "C/o Kancharapalem",
            "rating": 9.0
        },
        {
            "imdb_id": "tt0110912",
            "title": "Pulp Fiction",
            "rating": 8.9
        },
        {
            "imdb_id": "tt0108052",
            "title": "Schindler's List",
            "rating": 8.9
        },
        {
            "imdb_id": "tt0167260",
            "title": "The Lord of the Rings: The Return of the King",
            "rating": 8.9
        },
        {
            "imdb_id": "tt5275892",
            "title": "O.J.: Made in America",
            "rating": 8.9
        },
        {
            "imdb_id": "tt0120737",
            "title": "The Lord of the Rings: The Fellowship of the Ring",
            "rating": 8.8
        },
        {
            "imdb_id": "tt1375666",
            "title": "Inception",
            "rating": 8.8
        },
        {
            "imdb_id": "tt0109830",
            "title": "Forrest Gump",
            "rating": 8.8
        },
        {
            "imdb_id": "tt0137523",
            "title": "Fight Club",
            "rating": 8.8
        },
        {
            "imdb_id": "tt7559180",
            "title": "99 Songs",
            "rating": 8.8
        },
        {
            "imdb_id": "tt0060196",
            "title": "Il buono, il brutto, il cattivo",
            "rating": 8.8
        },
        {
            "imdb_id": "tt8517640",
            "title": "The Six",
            "rating": 8.8
        },
        {
            "imdb_id": "tt6019206",
            "title": "Kill Bill: The Whole Bloody Affair",
            "rating": 8.8
        },
        {
            "imdb_id": "tt5813916",
            "title": "Dag II",
            "rating": 8.8
        },
        {
            "imdb_id": "tt1754109",
            "title": "Les Misérables in Concert: The 25th Anniversary",
            "rating": 8.8
        },
        {
            "imdb_id": "tt11581174",
            "title": "Karnan",
            "rating": 8.7
        },
        {
            "imdb_id": "tt0167261",
            "title": "The Lord of the Rings: The Two Towers",
            "rating": 8.7
        },
        {
            "imdb_id": "tt0099685",
            "title": "Goodfellas",
            "rating": 8.7
        },
        {
            "imdb_id": "tt0080684",
            "title": "Star Wars: Episode V - The Empire Strikes Back",
            "rating": 8.7
        },
        {
            "imdb_id": "tt0133093",
            "title": "The Matrix",
            "rating": 8.7
        },
        {
            "imdb_id": "tt0073486",
            "title": "One Flew Over the Cuckoo's Nest",
            "rating": 8.7
        },
        {
            "imdb_id": "tt0358456",
            "title": "Earthlings",
            "rating": 8.7
        },
        {
            "imdb_id": "tt8176054",
            "title": "Pariyerum Perumal",
            "rating": 8.7
        },
        {
            "imdb_id": "tt1795369",
            "title": "National Theatre Live: Frankenstein",
            "rating": 8.7
        },
        {
            "imdb_id": "tt0367495",
            "title": "Anbe Sivam",
            "rating": 8.7
        },
        {
            "imdb_id": "tt0120815",
            "title": "Saving Private Ryan",
            "rating": 8.6
        },
        {
            "imdb_id": "tt6751668",
            "title": "Gisaengchung",
            "rating": 8.6
        },
        {
            "imdb_id": "tt0816692",
            "title": "Interstellar",
            "rating": 8.6
        },
        {
            "imdb_id": "tt0245429",
            "title": "Sen to Chihiro no kamikakushi",
            "rating": 8.6
        },
        {
            "imdb_id": "tt0317248",
            "title": "Cidade de Deus",
            "rating": 8.6
        },
        {
            "imdb_id": "tt0120689",
            "title": "The Green Mile",
            "rating": 8.6
        },
        {
            "imdb_id": "tt0114369",
            "title": "Se7en",
            "rating": 8.6
        },
        {
            "imdb_id": "tt10189514",
            "title": "Soorarai Pottru",
            "rating": 8.6
        },
        {
            "imdb_id": "tt0102926",
            "title": "The Silence of the Lambs",
            "rating": 8.6
        },
        {
            "imdb_id": "tt0118799",
            "title": "La vita è bella",
            "rating": 8.6
        },
        {
            "imdb_id": "tt0076759",
            "title": "Star Wars",
            "rating": 8.6
        },
        {
            "imdb_id": "tt0056058",
            "title": "Seppuku",
            "rating": 8.6
        },
        {
            "imdb_id": "tt7019842",
            "title": "96",
            "rating": 8.6
        },
        {
            "imdb_id": "tt12361178",
            "title": "Drishyam 2",
            "rating": 8.6
        },
        {
            "imdb_id": "tt0103767",
            "title": "Baraka",
            "rating": 8.6
        },
        {
            "imdb_id": "tt8413338",
            "title": "Kumbalangi Nights",
            "rating": 8.6
        },
        {
            "imdb_id": "tt7397098",
            "title": "Initiation",
            "rating": 8.6
        }
    ]
}